{
    "page": 1,
    "total_results": 7157,
    "total_pages": 358,
    "results": [{
                "vote_count": 666,
                "id": 19404,
                "video": false,
                "vote_average": 9.1,
                "title": "Dilwale Dulhania Le Jayenge",
                "popularity": 38.548507,
                "poster_path": "\/2gvbZMtV1Zsl7FedJa5ysbpBx2G.jpg",
                "original_language": "hi",
                "original_title": "Dilwale Dulhania Le Jayenge",
                "genre_ids": [35, 18, 10749],
                "backdrop_path": "\/nl79FQ8xWZkhL3rDr1v2RFFR6J0.jpg",
                "adult": false,
                "overview": "Raj is a rich, carefree, happy-go-lucky second generation NRI. Simran is the daughter of Chaudhary Baldev Singh, who in spite of being an NRI is very strict about adherence to Indian values. Simran has left for India to be married to her childhood fiancé. Raj leaves for India with a mission at his hands, to claim his lady love under the noses of her whole family. Thus begins a saga.",
                "release_date": "1995-10-20"
                }, {
                "vote_count": 8409,
                "id": 278,
                "video": false,
                "vote_average": 8.5,
                "title": "The Shawshank Redemption",
                "popularity": 51.195234,
                "poster_path": "\/9O7gLzmreU0nGkIB6K3BsJbzvNv.jpg",
                "original_language": "en",
                "original_title": "The Shawshank Redemption",
                "genre_ids": [18, 80],
                "backdrop_path": "\/xBKGJQsAIeweesB79KC89FpBrVr.jpg",
                "adult": false,
                "overview": "Framed in the 1940s for the double murder of his wife and her lover, upstanding banker Andy Dufresne begins a new life at the Shawshank prison, where he puts his accounting skills to work for an amoral warden. During his long stretch in prison, Dufresne comes to be admired by the other inmates -- including an older prisoner named Red -- for his integrity and unquenchable sense of hope.",
                "release_date": "1994-09-23"
                }, {
                "vote_count": 1061,
                "id": 372058,
                "video": false,
                "vote_average": 8.5,
                "title": "Your Name.",
                "popularity": 45.449979,
                "poster_path": "\/xq1Ugd62d23K2knRUx6xxuALTZB.jpg",
                "original_language": "ja",
                "original_title": "君の名は。",
                "genre_ids": [10749, 16, 18],
                "backdrop_path": "\/mMtUybQ6hL24FXo0F3Z4j2KG7kZ.jpg",
                "adult": false,
                "overview": "High schoolers Mitsuha and Taki are complete strangers living separate lives. But one night, they suddenly switch places. Mitsuha wakes up in Taki’s body, and he in hers. This bizarre occurrence continues to happen randomly, and the two must adjust their lives around each other.",
                "release_date": "2016-08-26"
                }, {
                "vote_count": 6072,
                "id": 238,
                "video": false,
                "vote_average": 8.5,
                "title": "The Godfather",
                "popularity": 47.414074,
                "poster_path": "\/rPdtLWNsZmAtoZl9PK7S2wE3qiS.jpg",
                "original_language": "en",
                "original_title": "The Godfather",
                "genre_ids": [18, 80],
                "backdrop_path": "\/6xKCYgH16UuwEGAyroLU6p8HLIn.jpg",
                "adult": false,
                "overview": "Spanning the years 1945 to 1955, a chronicle of the fictional Italian-American Corleone crime family. When organized crime family patriarch, Vito Corleone barely survives an attempt on his life, his youngest son, Michael steps in to take care of the would-be killers, launching a campaign of bloody revenge.",
                "release_date": "1972-03-14"
                }, {
                "vote_count": 4427,
                "id": 424,
                "video": false,
                "vote_average": 8.3,
                "title": "Schindler's List",
                "popularity": 43.869912,
                "poster_path": "\/yPisjyLweCl1tbgwgtzBCNCBle.jpg",
                "original_language": "en",
                "original_title": "Schindler's List",
                "genre_ids": [18, 36, 10752],
                "backdrop_path": "\/rIpSszng8P0DL0TimSzZbpfnvh1.jpg",
                "adult": false,
                "overview": "The true story of how businessman Oskar Schindler saved over a thousand Jewish lives from the Nazis while they worked as slaves in his factory during World War II.",
                "release_date": "1993-11-29"
                }, {
                "vote_count": 3973,
                "id": 129,
                "video": false,
                "vote_average": 8.3,
                "title": "Spirited Away",
                "popularity": 47.198737,
                "poster_path": "\/dL11DBPcRhWWnJcFXl9A07MrqTI.jpg",
                "original_language": "ja",
                "original_title": "千と千尋の神隠し",
                "genre_ids": [16, 10751, 14],
                "backdrop_path": "\/mnpRKVSXBX6jb56nabvmGKA0Wig.jpg",
                "adult": false,
                "overview": "A young girl, Chihiro, becomes trapped in a strange new world of spirits. When her parents undergo a mysterious transformation, she must call upon the courage she never knew she had to free her family.",
                "release_date": "2001-07-20"
                }, {
                "vote_count": 220,
                "id": 374430,
                "video": false,
                "vote_average": 8.3,
                "title": "Black Mirror: White Christmas",
                "popularity": 31.223083,
                "poster_path": "\/he609rnU3tiwBjRklKNa4n2jQSd.jpg",
                "original_language": "en",
                "original_title": "Black Mirror: White Christmas",
                "genre_ids": [18, 27, 9648, 878, 53, 10770],
                "backdrop_path": "\/rMCew7St2vy9iV3QOPzx15sAkFJ.jpg",
                "adult": false,
                "overview": "This feature-length special consists of three interwoven stories. In a mysterious and remote snowy outpost, Matt and Potter share a Christmas meal, swapping creepy tales of their earlier lives in the outside world. Matt is a charismatic American trying to bring the reserved, secretive Potter out of his shell. But are both men who they appear to be? A woman gets thrust into a nightmarish world of 'smart' gadgetry. Plus a look at what would happen if you could 'block' people in real life.",
                "release_date": "2014-12-16"
                }, {
                "vote_count": 4338,
                "id": 244786,
                "video": false,
                "vote_average": 8.3,
                "title": "Whiplash",
                "popularity": 58.701354,
                "poster_path": "\/lIv1QinFqz4dlp5U4lQ6HaiskOZ.jpg",
                "original_language": "en",
                "original_title": "Whiplash",
                "genre_ids": [18],
                "backdrop_path": "\/6bbZ6XyvgfjhQwbplnUh1LSj1ky.jpg",
                "adult": false,
                "overview": "Under the direction of a ruthless instructor, a talented young drummer begins to pursue perfection at any cost, even his humanity.",
                "release_date": "2014-10-10"
                }, {
                "vote_count": 3450,
                "id": 240,
                "video": false,
                "vote_average": 8.3,
                "title": "The Godfather: Part II",
                "popularity": 42.377219,
                "poster_path": "\/bVq65huQ8vHDd1a4Z37QtuyEvpA.jpg",
                "original_language": "en",
                "original_title": "The Godfather: Part II",
                "genre_ids": [18, 80],
                "backdrop_path": "\/gLbBRyS7MBrmVUNce91Hmx9vzqI.jpg",
                "adult": false,
                "overview": "In the continuing saga of the Corleone crime family, a young Vito Corleone grows up in Sicily and in 1910s New York. In the 1950s, Michael Corleone attempts to expand the family business into Las Vegas, Hollywood and Cuba.",
                "release_date": "1974-12-20"
                }, {
                "vote_count": 9757,
                "id": 550,
                "video": false,
                "vote_average": 8.3,
                "title": "Fight Club",
                "popularity": 57.049254,
                "poster_path": "\/adw6Lq9FiC9zjYEpOqfq03ituwp.jpg",
                "original_language": "en",
                "original_title": "Fight Club",
                "genre_ids": [18],
                "backdrop_path": "\/8uO0gUM8aNqYLs1OsTBQiXu0fEv.jpg",
                "adult": false,
                "overview": "A ticking-time-bomb insomniac and a slippery soap salesman channel primal male aggression into a shocking new form of therapy. Their concept catches on, with underground \"fight clubs\" forming in every town, until an eccentric gets in the way and ignites an out-of-control spiral toward oblivion.",
                "release_date": "1999-10-15"
                }, {
                "vote_count": 133,
                "id": 455661,
                "video": false,
                "vote_average": 8.3,
                "title": "In a Heartbeat",
                "popularity": 31.218068,
                "poster_path": "\/wJUJROdLOtOzMixkjkx1aaZGSLl.jpg",
                "original_language": "en",
                "original_title": "In a Heartbeat",
                "genre_ids": [10751, 16, 10749, 35],
                "backdrop_path": "\/4datX8btikWEikf7esqEe6fhw.jpg",
                "adult": false,
                "overview": "A closeted boy runs the risk of being outed by his own heart after it pops out of his chest to chase down the boy of his dreams.",
                "release_date": "2017-06-01"
                }, {
                "vote_count": 8760,
                "id": 680,
                "video": false,
                "vote_average": 8.3,
                "title": "Pulp Fiction",
                "popularity": 176.440369,
                "poster_path": "\/dM2w364MScsjFf8pfMbaWUcWrR.jpg",
                "original_language": "en",
                "original_title": "Pulp Fiction",
                "genre_ids": [53, 80],
                "backdrop_path": "\/9rZg1J6vMQoDVSgRyWcpJa8IAGy.jpg",
                "adult": false,
                "overview": "A burger-loving hit man, his philosophical partner, a drug-addled gangster's moll and a washed-up boxer converge in this sprawling, comedic crime caper. Their adventures unfurl in three stories that ingeniously trip back and forth in time.",
                "release_date": "1994-09-10"
                }, {
                "vote_count": 3635,
                "id": 637,
                "video": false,
                "vote_average": 8.3,
                "title": "Life Is Beautiful",
                "popularity": 44.397757,
                "poster_path": "\/f7DImXDebOs148U4uPjI61iDvaK.jpg",
                "original_language": "it",
                "original_title": "La vita è bella",
                "genre_ids": [35, 18],
                "backdrop_path": "\/bORe0eI72D874TMawOOFvqWS6Xe.jpg",
                "adult": false,
                "overview": "A touching story of an Italian book seller of Jewish ancestry who lives in his own little fairy tale. His creative and happy life would come to an abrupt halt when his entire family is deported to a concentration camp during World War II. While locked up he tries to convince his son that the whole thing is just a game.",
                "release_date": "1997-12-20"
                }, {
                "vote_count": 12243,
                "id": 155,
                "video": false,
                "vote_average": 8.3,
                "title": "The Dark Knight",
                "popularity": 60.328659,
                "poster_path": "\/1hRoyzDtpgMU7Dz4JF22RANzQO7.jpg",
                "original_language": "en",
                "original_title": "The Dark Knight",
                "genre_ids": [18, 28, 80, 53],
                "backdrop_path": "\/hqkIcbrOHL86UncnHIsHVcVmzue.jpg",
                "adult": false,
                "overview": "Batman raises the stakes in his war on crime. With the help of Lt. Jim Gordon and District Attorney Harvey Dent, Batman sets out to dismantle the remaining criminal organizations that plague the streets. The partnership proves to be effective, but they soon find themselves prey to a reign of chaos unleashed by a rising criminal mastermind known to the terrified citizens of Gotham as the Joker.",
                "release_date": "2008-07-16"
                }, {
                "vote_count": 3032,
                "id": 510,
                "video": false,
                "vote_average": 8.3,
                "title": "One Flew Over the Cuckoo's Nest",
                "popularity": 35.891006,
                "poster_path": "\/2Sns5oMb356JNdBHgBETjIpRYy9.jpg",
                "original_language": "en",
                "original_title": "One Flew Over the Cuckoo's Nest",
                "genre_ids": [18],
                "backdrop_path": "\/4E7YQcwui0PfNXguf4V2X8YocPC.jpg",
                "adult": false,
                "overview": "While serving time for insanity at a state mental hospital, implacable rabble-rouser, Randle Patrick McMurphy inspires his fellow patients to rebel against the authoritarian rule of head nurse, Mildred Ratched.",
                "release_date": "1975-11-18"
                }, {
                "vote_count": 2378,
                "id": 539,
                "video": false,
                "vote_average": 8.2,
                "title": "Psycho",
                "popularity": 38.683557,
                "poster_path": "\/81d8oyEFgj7FlxJqSDXWr8JH8kV.jpg",
                "original_language": "en",
                "original_title": "Psycho",
                "genre_ids": [18, 27, 53],
                "backdrop_path": "\/3md49VBCeqY6MSNyAVY6d5eC6bA.jpg",
                "adult": false,
                "overview": "When larcenous real estate clerk Marion Crane goes on the lam with a wad of cash and hopes of starting a new life, she ends up at the notorious Bates Motel, where manager Norman Bates cares for his housebound mother. The place seems quirky, but fine… until Marion decides to take a shower.",
                "release_date": "1960-06-16"
                }, {
                "vote_count": 1101,
                "id": 311,
                "video": false,
                "vote_average": 8.2,
                "title": "Once Upon a Time in America",
                "popularity": 36.457161,
                "poster_path": "\/fqP3Q7DWMFqW7mh11hWXbNwN9rz.jpg",
                "original_language": "en",
                "original_title": "Once Upon a Time in America",
                "genre_ids": [18, 80],
                "backdrop_path": "\/vnT6HzjLSDrAweHn9xWykb8Ii6T.jpg",
                "adult": false,
                "overview": "A former Prohibition-era Jewish gangster returns to the Lower East Side of Manhattan over thirty years later, where he once again must confront the ghosts and regrets of his old life.",
                "release_date": "1984-02-16"
                }, {
                "vote_count": 8215,
                "id": 13,
                "video": false,
                "vote_average": 8.2,
                "title": "Forrest Gump",
                "popularity": 43.691275,
                "poster_path": "\/yE5d3BUhE8hCnkMUJOo1QDoOGNz.jpg",
                "original_language": "en",
                "original_title": "Forrest Gump",
                "genre_ids": [35, 18, 10749],
                "backdrop_path": "\/ctOEhQiFIHWkiaYp7b0ibSTe5IL.jpg",
                "adult": false,
                "overview": "A man with a low IQ has accomplished great things in his life and been present during significant historic events - in each case, far exceeding what anyone imagined he could do. Yet, despite all the things he has attained, his one true love eludes him. 'Forrest Gump' is the story of a man who rose above his challenges, and who proved that determination, courage, and love are more important than ability.",
                "release_date": "1994-07-06"
                }, {
                "vote_count": 534,
                "id": 599,
                "video": false,
                "vote_average": 8.2,
                "title": "Sunset Boulevard",
                "popularity": 27.516195,
                "poster_path": "\/oFwzvRgfxJc0FUr2mwYTi10dk3G.jpg",
                "original_language": "en",
                "original_title": "Sunset Boulevard",
                "genre_ids": [18],
                "backdrop_path": "\/49OTCCPYlARRe2JS1PAhPJmFkIW.jpg",
                "adult": false,
                "overview": "A hack screenwriter writes a screenplay for a former silent-film star who has faded into Hollywood obscurity.",
                "release_date": "1950-08-10"
                }, {
                "vote_count": 75,
                "id": 29259,
                "video": false,
                "vote_average": 8.2,
                "title": "Le Trou",
                "popularity": 9.701867,
                "poster_path": "\/pyCMEIAtMPpWTVwZTajcbCIBI3u.jpg",
                "original_language": "fr",
                "original_title": "Le Trou",
                "genre_ids": [80, 18, 53],
                "backdrop_path": "\/v2bV7ZEJlk8cA3vbzD9u7TjGyTz.jpg",
                "adult": false,
                "overview": "An imprisoned man, awaiting trial for the attempted murder of his wife, is transferred to another cell, where his fellow prisoners are planning a jailbreak. He decides to go along with the elaborate plan, and the cellmates attempt to tunnel their way to freedom. Le Trou represents the last film of director Jacques Becker, who died shortly after its completion.",
                "release_date": "1960-03-18"
                }]
}
